sem3/dsd/lab_4/decode4_16_tb.vcd
$date
	Mon Sep  4 22:42:57 2023
$end
$version
	Icarus Verilog
$end
$timescale
	1ns
$end
$scope module decode4_16_tb $end
$var wire 16 ! y [15:0] $end
$var reg 4 " a [3:0] $end
$var reg 1 # en $end
$scope module uut $end
$var wire 4 $ a [3:0] $end
$var wire 1 # en $end
$var wire 16 % y [15:0] $end
$var wire 4 & b [3:0] $end
$scope module m1 $end
$var wire 2 ' a [1:0] $end
$var wire 1 # en $end
$var reg 4 ( y [3:0] $end
$upscope $end
$scope module m2 $end
$var wire 2 ) a [1:0] $end
$var wire 1 * en $end
$var reg 4 + y [3:0] $end
$upscope $end
$scope module m3 $end
$var wire 2 , a [1:0] $end
$var wire 1 - en $end
$var reg 4 . y [3:0] $end
$upscope $end
$scope module m4 $end
$var wire 2 / a [1:0] $end
$var wire 1 0 en $end
$var reg 4 1 y [3:0] $end
$upscope $end
$scope module m5 $end
$var wire 2 2 a [1:0] $end
$var wire 1 3 en $end
$var reg 4 4 y [3:0] $end
$upscope $end
$upscope $end
$upscope $end
$enddefinitions $end
$comment Show the parameter values. $end
$dumpall
$end
#0
$dumpvars
b0 4
03
b0 2
b0 1
00
b0 /
b0 .
0-
b0 ,
b0 +
0*
b0 )
b0 (
b0 '
b0 &
b0 %
b0 $
0#
b0 "
b0 !
$end
#20
b1 !
b1 %
b1 +
1*
b1 &
b1 (
1#
#40
b10 !
b10 %
b10 +
b1 )
b1 ,
b1 /
b1 2
b1 "
b1 $
#60
b100 !
b100 %
b100 +
b10 )
b10 ,
b10 /
b10 2
b10 "
b10 $
#80
b1000 !
b1000 %
b1000 +
b11 )
b11 ,
b11 /
b11 2
b11 "
b11 $
#100
b1 .
1-
0*
b10 &
b10 (
b10000 !
b10000 %
b0 +
b1 '
b0 )
b0 ,
b0 /
b0 2
b100 "
b100 $
#120
b100000 !
b100000 %
b10 .
b1 )
b1 ,
b1 /
b1 2
b101 "
b101 $
#140
b1000000 !
b1000000 %
b100 .
b10 )
b10 ,
b10 /
b10 2
b110 "
b110 $
#160
b10000000 !
b10000000 %
b1000 .
b11 )
b11 ,
b11 /
b11 2
b111 "
b111 $
#180
b1 1
10
0-
b100 &
b100 (
b100000000 !
b100000000 %
b0 .
b10 '
b0 )
b0 ,
b0 /
b0 2
b1000 "
b1000 $
#200
b1000000000 !
b1000000000 %
b10 1
b1 )
b1 ,
b1 /
b1 2
b1001 "
b1001 $
#220
b10000000000 !
b10000000000 %
b100 1
b10 )
b10 ,
b10 /
b10 2
b1010 "
b1010 $
#240
b100000000000 !
b100000000000 %
b1000 1
b11 )
b11 ,
b11 /
b11 2
b1011 "
b1011 $
#260
b1 4
13
00
b1000 &
b1000 (
b1000000000000 !
b1000000000000 %
b0 1
b11 '
b0 )
b0 ,
b0 /
b0 2
b1100 "
b1100 $
#280
b10000000000000 !
b10000000000000 %
b10 4
b1 )
b1 ,
b1 /
b1 2
b1101 "
b1101 $
#300
b100000000000000 !
b100000000000000 %
b100 4
b10 )
b10 ,
b10 /
b10 2
b1110 "
b1110 $
#320
b1000000000000000 !
b1000000000000000 %
b1000 4
b11 )
b11 ,
b11 /
b11 2
b1111 "
b1111 $
